{
  "images" : [
    {
      "filename" : "Splash_5_EN2.png",
      "idiom" : "universal",
      "scale" : "1x"
    },
    {
      "idiom" : "universal",
      "scale" : "2x"
    },
    {
      "idiom" : "universal",
      "scale" : "3x"
    },
    {
      "filename" : "Splash_5_DE2.png",
      "idiom" : "universal",
      "locale" : "de",
      "scale" : "1x"
    },
    {
      "idiom" : "universal",
      "locale" : "de",
      "scale" : "2x"
    },
    {
      "idiom" : "universal",
      "locale" : "de",
      "scale" : "3x"
    },
    {
      "filename" : "Splash_5_EN2-1.png",
      "idiom" : "universal",
      "locale" : "en",
      "scale" : "1x"
    },
    {
      "idiom" : "universal",
      "locale" : "en",
      "scale" : "2x"
    },
    {
      "idiom" : "universal",
      "locale" : "en",
      "scale" : "3x"
    },
    {
      "filename" : "Splash_5_NL2.png",
      "idiom" : "universal",
      "locale" : "nl",
      "scale" : "1x"
    },
    {
      "idiom" : "universal",
      "locale" : "nl",
      "scale" : "2x"
    },
    {
      "idiom" : "universal",
      "locale" : "nl",
      "scale" : "3x"
    }
  ],
  "info" : {
    "author" : "xcode",
    "version" : 1
  },
  "properties" : {
    "localizable" : true
  }
}
